%YAML 1.1
%TAG !u! tag:unity3d.com,2011:
--- !u!114 &11400000
MonoBehaviour:
  m_ObjectHideFlags: 0
  m_CorrespondingSourceObject: {fileID: 0}
  m_PrefabInstance: {fileID: 0}
  m_PrefabAsset: {fileID: 0}
  m_GameObject: {fileID: 0}
  m_Enabled: 1
  m_EditorHideFlags: 0
  m_Script: {fileID: 11500000, guid: af2d85963e5924fefa941502b96e7562, type: 3}
  m_Name: LocalizationData
  m_EditorClassIdentifier: 
  pageId: 0
  languagesMap:
  - English
  - Portuguese
  - French
  - German
  - Italian
  - Indonesian
  - Korean
  - Japanese
  - Arabic
  languages:
  - English
  - Portuguese
  - French
  - German
  - Italian
  - Indonesian
  - Korean
  - Japanese
  - Arabic
  keys:
  - name: language
    values:
    - language: English
      text: English
    - language: Portuguese
      text: "Portugu\xEAs"
    - language: French
      text: "Fran\xE7ais"
    - language: German
      text: Deutsch
    - language: Italian
      text: Italiano
    - language: Indonesian
      text: bahasa Indonesia
    - language: Korean
      text: "\uD55C\uAD6D\uC778"
    - language: Japanese
      text: "\u65E5\u672C\u8A9E"
    - language: Arabic
      text: "\u0639\u0631\u0628\u064A"
